Proy1.msim.vcd
$comment
	File created using the following command:
		vcd file Proy1.msim.vcd -direction
$end
$date
	Sun Dec 24 12:28:57 2023
$end
$version
	ModelSim Version 10.5b
$end
$timescale
	1ps
$end

$scope module prueba7493_vlg_vec_tst $end
$var reg 1 ! ENCENDIDO $end
$var reg 1 " RESET $end
$var reg 1 # RESTA $end
$var reg 1 $ SUMA $end
$var wire 1 % LedRojo $end
$var wire 1 & LedVerde $end
$var wire 1 ' OA $end
$var wire 1 ( OAA $end
$var wire 1 ) OB $end
$var wire 1 * OBB $end
$var wire 1 + OC $end
$var wire 1 , OCC $end
$var wire 1 - OD $end
$var wire 1 . ODD $end
$var wire 1 / OE $end
$var wire 1 0 OEE $end
$var wire 1 1 OF $end
$var wire 1 2 OFF $end
$var wire 1 3 OG $end
$var wire 1 4 OGG $end

$scope module i1 $end
$var wire 1 5 gnd $end
$var wire 1 6 vcc $end
$var wire 1 7 unknown $end
$var tri1 1 8 devclrn $end
$var tri1 1 9 devpor $end
$var tri1 1 : devoe $end
$var wire 1 ; ~QUARTUS_CREATED_GND~I_combout $end
$var wire 1 < SUMA~input_o $end
$var wire 1 = RESTA~input_o $end
$var wire 1 > inst42|103~combout $end
$var wire 1 ? inst42|26~0_combout $end
$var wire 1 @ RESET~input_o $end
$var wire 1 A ENCENDIDO~input_o $end
$var wire 1 B inst42|94~combout $end
$var wire 1 C inst42|26~q $end
$var wire 1 D inst|sub|109~combout $end
$var wire 1 E inst41|51~0_combout $end
$var wire 1 F inst42|22~combout $end
$var wire 1 G inst42|100~0_combout $end
$var wire 1 H inst42|100~combout $end
$var wire 1 I inst42|23~0_combout $end
$var wire 1 J inst42|23~feeder_combout $end
$var wire 1 K inst42|23~q $end
$var wire 1 L inst|sub|84~combout $end
$var wire 1 M inst|sub|87~combout $end
$var wire 1 N inst41|102~combout $end
$var wire 1 O inst41|25~0_combout $end
$var wire 1 P inst41|25~q $end
$var wire 1 Q inst41|100~combout $end
$var wire 1 R inst41|23~0_combout $end
$var wire 1 S inst41|23~q $end
$var wire 1 T inst12|38~0_combout $end
$var wire 1 U inst41|101~combout $end
$var wire 1 V inst41|24~0_combout $end
$var wire 1 W inst41|24~feeder_combout $end
$var wire 1 X inst41|24~q $end
$var wire 1 Y inst13|sub|84~combout $end
$var wire 1 Z inst41|103~combout $end
$var wire 1 [ inst41|26~0_combout $end
$var wire 1 \ inst41|26~q $end
$var wire 1 ] inst41|28~combout $end
$var wire 1 ^ inst42|101~combout $end
$var wire 1 _ inst42|24~0_combout $end
$var wire 1 ` inst42|24~feeder_combout $end
$var wire 1 a inst42|24~q $end
$var wire 1 b inst42|72~0_combout $end
$var wire 1 c inst42|102~combout $end
$var wire 1 d inst42|25~0_combout $end
$var wire 1 e inst42|25~q $end
$var wire 1 f inst11|81~combout $end
$var wire 1 g inst11|82~0_combout $end
$var wire 1 h inst11|83~combout $end
$var wire 1 i inst11|84~0_combout $end
$var wire 1 j inst11|85~combout $end
$var wire 1 k inst11|86~0_combout $end
$var wire 1 l inst11|87~combout $end
$var wire 1 m inst12|81~combout $end
$var wire 1 n inst12|82~0_combout $end
$var wire 1 o inst12|83~combout $end
$var wire 1 p inst12|84~0_combout $end
$var wire 1 q inst12|85~combout $end
$var wire 1 r inst12|86~0_combout $end
$var wire 1 s inst12|87~combout $end
$var wire 1 t inst|sub|108~combout $end
$upscope $end
$upscope $end
$enddefinitions $end
#0
$dumpvars
1!
1"
0#
0$
0%
1&
0'
1(
1)
1*
1+
1,
1-
1.
1/
10
11
12
03
04
05
16
x7
18
19
1:
0;
0<
0=
1>
1?
1@
1A
0B
0C
0D
0E
0F
1G
1H
1I
1J
0K
0L
1M
1N
1O
0P
1Q
1R
0S
1T
1U
1V
1W
0X
0Y
1Z
1[
0\
0]
1^
1_
1`
0a
1b
1c
1d
0e
0f
0g
0h
0i
0j
0k
1l
0m
0n
0o
0p
0q
0r
1s
0t
$end
#12500
1$
1<
0Z
#25000
0$
0<
1Z
1\
1r
1q
1p
0[
1Y
1m
1'
0-
0/
01
#37500
1$
1<
1E
0Z
0N
#50000
0$
0<
0E
1Z
1N
0\
1P
0s
0q
0p
1o
0T
0O
1[
0m
0'
0+
1-
1/
13
#62500
1$
1<
0Z
#75000
0$
0<
1Z
1\
1q
0o
0[
1+
0/
#80000
0!
0"
0A
0@
1B
0P
0\
1s
0r
0q
1[
0Y
1T
1O
1/
11
03
#87500
1$
1<
0Z
#100000
0$
0<
1Z
#112500
1$
1<
0Z
#125000
0$
0<
1Z
#137500
1$
1<
0Z
#150000
1!
1"
0$
1A
1@
0<
0B
1Z
1\
1r
1q
1p
0[
1Y
1m
1'
0-
0/
01
#162500
1$
1<
1E
0Z
0N
#175000
0$
0<
0E
1Z
1N
0\
1P
0s
0q
0p
1o
0T
0O
1[
0m
0'
0+
1-
1/
13
#180000
0!
0A
1B
0P
1s
0r
0o
0Y
1T
1O
1+
11
03
#187500
1$
1<
0Z
#200000
0$
0<
1Z
#210000
1!
1A
0B
#212500
1$
1<
0Z
#225000
0$
0<
1Z
1\
1r
1q
1p
0[
1Y
1m
1'
0-
0/
01
#237500
1$
1<
1E
0Z
0N
#240000
0!
0A
1B
0\
0r
0q
0p
1[
0Y
0E
0m
1N
0'
1-
1/
11
#250000
0$
0<
1Z
#262500
1$
1<
0Z
#270000
1!
1A
0B
#275000
0$
0<
1Z
1\
1r
1q
1p
0[
1Y
1m
1'
0-
0/
01
#287500
1$
1<
1E
0Z
0N
#300000
0!
0$
0A
0<
0E
1B
1Z
1N
0\
0r
0q
0p
1[
0Y
0m
0'
1-
1/
11
#312500
1$
1<
0Z
#325000
0$
0<
1Z
#330000
1!
1A
0B
#337500
1$
1<
0Z
#350000
0$
0<
1Z
1\
1r
1q
1p
0[
1Y
1m
1'
0-
0/
01
#360000
0!
0A
1B
0\
0r
0q
0p
1[
0Y
0m
0'
1-
1/
11
#362500
1$
1<
0Z
#375000
0$
0<
1Z
#387500
1$
1<
0Z
#390000
1!
1A
0B
#400000
0$
0<
1Z
1\
1r
1q
1p
0[
1Y
1m
1'
0-
0/
01
#412500
1$
1<
1E
0Z
0N
#420000
0!
0A
1B
0\
0r
0q
0p
1[
0Y
0E
0m
1N
0'
1-
1/
11
#425000
0$
0<
1Z
#437500
1$
1<
0Z
#450000
1!
0$
1A
0<
0B
1Z
1\
1r
1q
1p
0[
1Y
1m
1'
0-
0/
01
#462500
1$
1<
1E
0Z
0N
#475000
0$
0<
0E
1Z
1N
0\
1P
0s
0q
0p
1o
0T
0O
1[
0m
0'
0+
1-
1/
13
#480000
0!
0A
1B
0P
1s
0r
0o
0Y
1T
1O
1+
11
03
#487500
1$
1<
0Z
#500000
0$
0<
1Z
#510000
1!
1A
0B
#512500
1$
1<
0Z
#525000
0$
0<
1Z
1\
1r
1q
1p
0[
1Y
1m
1'
0-
0/
01
#537500
1$
1<
1E
0Z
0N
#540000
0!
0A
1B
0\
0r
0q
0p
1[
0Y
0E
0m
1N
0'
1-
1/
11
#550000
0$
0<
1Z
#562500
1$
1<
0Z
#570000
1!
1A
0B
#575000
0$
0<
1Z
1\
1r
1q
1p
0[
1Y
1m
1'
0-
0/
01
#587500
1$
1<
1E
0Z
0N
#600000
0"
0!
0$
0@
0A
0<
0E
1B
1Z
1N
0\
0r
0q
0p
1[
0Y
0m
0'
1-
1/
11
#612500
1$
1<
0Z
#625000
0$
0<
1Z
#630000
1!
1A
#660000
0!
0A
#670000
1#
1=
1]
1F
0Z
0Q
0>
0H
#675000
1"
1@
#690000
1!
0#
1A
0=
0]
0F
0B
1Z
1Q
1>
1H
1K
1\
1S
1C
0l
1j
1i
1L
0?
0s
1Y
0T
0R
1q
1p
0[
0b
0I
0G
0-
0/
13
0.
00
14
1E
0J
0Z
0M
0&
0Q
0H
0>
#710000
1#
1=
#720000
0!
0A
1B
0C
0K
0S
0\
1s
0q
0p
1]
1[
0Y
0E
1T
1R
1l
1b
0L
1I
1G
0j
0i
1?
0U
0N
1>
1H
1.
10
04
1-
1/
03
1F
1J
1M
1U
1N
0>
1&
0H
#730000
0#
0=
0]
0F
1Z
1Q
1>
1H
#750000
1!
1#
1A
1=
1]
1F
0B
0Z
0Q
0>
0H
#770000
0#
0=
0]
0F
1Z
1Q
1>
1H
1K
1\
1S
1C
0l
1j
1i
1L
0?
0s
1Y
0T
0R
1q
1p
0[
0b
0I
0G
0-
0/
13
0.
00
14
1E
0J
0Z
0M
0&
0Q
0H
0>
#780000
0!
0A
1B
0C
0K
0S
0\
1s
0q
0p
1[
0Y
0E
1T
1R
1l
1b
0L
1I
1G
0j
0i
1?
1Q
1>
1H
1.
10
04
1-
1/
03
1J
1Z
1M
1&
#790000
1#
1=
1]
1F
0Z
0Q
0>
0H
#810000
1!
0#
1A
0=
0]
0F
0B
1Z
1Q
1>
1H
1K
1\
1S
1C
0l
1j
1i
1L
0?
0s
1Y
0T
0R
1q
1p
0[
0b
0I
0G
0-
0/
13
0.
00
14
1E
0J
0Z
0M
0&
0Q
0H
0>
#830000
1#
1=
#840000
0!
0A
1B
0C
0K
0S
0\
1s
0q
0p
1]
1[
0Y
0E
1T
1R
1l
1b
0L
1I
1G
0j
0i
1?
0U
0N
1>
1H
1.
10
04
1-
1/
03
1F
1J
1M
1U
1N
0>
1&
0H
#850000
0#
0=
0]
0F
1Z
1Q
1>
1H
#870000
1!
1#
1A
1=
1]
1F
0B
0Z
0Q
0>
0H
#890000
0#
0=
0]
0F
1Z
1Q
1>
1H
1K
1\
1S
1C
0l
1j
1i
1L
0?
0s
1Y
0T
0R
1q
1p
0[
0b
0I
0G
0-
0/
13
0.
00
14
1E
0J
0Z
0M
0&
0Q
0H
0>
#900000
0!
0A
1B
0C
0K
0S
0\
1s
0q
0p
1[
0Y
0E
1T
1R
1l
1b
0L
1I
1G
0j
0i
1?
1Q
1>
1H
1.
10
04
1-
1/
03
1J
1Z
1M
1&
#910000
1#
1=
1]
1F
0Z
0Q
0>
0H
#930000
1!
0#
1A
0=
0]
0F
0B
1Z
1Q
1>
1H
1K
1\
1S
1C
0l
1j
1i
1L
0?
0s
1Y
0T
0R
1q
1p
0[
0b
0I
0G
0-
0/
13
0.
00
14
1E
0J
0Z
0M
0&
0Q
0H
0>
#950000
1#
1=
#960000
0!
0A
1B
0C
0K
0S
0\
1s
0q
0p
1]
1[
0Y
0E
1T
1R
1l
1b
0L
1I
1G
0j
0i
1?
0U
0N
1>
1H
1.
10
04
1-
1/
03
1F
1J
1M
1U
1N
0>
1&
0H
#970000
0#
0=
0]
0F
1Z
1Q
1>
1H
#975000
0"
0@
#990000
1!
1#
1A
1=
1]
1F
0Z
0Q
0>
0H
